[
    {
        "id": 1,
        "img":"/static/media/image_1.jpg",
        "lable": "shoes",
        "heading": "Buxton Sneakers For Men (White, Brown)",
        "price": 1200
    },
    {
        "id": 2,
        "img":"static/media/image_1.jpg",
        "lable": "shoes",
        "heading": "Buxton Sneakers For Men (White, Brown)",
        "price": 1200
    },
    {
        "id": 3,
        "img":"../../images/image_1.jpg",
        "lable": "shoes",
        "heading": "Buxton Sneakers For Men (White, Brown)",
        "price": 1200
    },
    {
        "id": 4,
        "img":"../../images/image_1.jpg",
        "lable": "shoes",
        "heading": "Buxton Sneakers For Men (White, Brown)",
        "price": 1200
    }
]